R básico
…
Consideramos como exemplo os dados fictícios de `\(n=30\)` gestações gemelares. Vamos considerar duas bases de dados. Na primeira, chamada de "Base_CTG_caracterizacao" estão contidas as informações de caracterização das gestantes e gestações. 

Para importar a base de dados: 

```r
library(readxl)
dados <- read_excel(path = "Base_CTG_caracterizacao.xls",na="NA")
dados
  #> # A tibble: 34 × 13
  #>       ID CORION `Data aval`         `Data nascimento`   `COR BRANCO` `Peso Pré`
  #>    <dbl> <chr>  <dttm>              <dttm>                     <dbl>      <dbl>
  #>  1     1 Di     2017-04-23 00:00:00 1988-04-30 00:00:00            1         93
  #>  2     2 Mono   2016-03-21 00:00:00 1982-03-30 00:00:00            1         59
  #>  3     2 Mono   2016-03-21 00:00:00 1982-03-30 00:00:00            1         59
  #>  4     3 Di     2016-02-17 00:00:00 1991-02-23 00:00:00            0         87
  #>  5     4 Di     2017-12-14 00:00:00 1983-12-23 00:00:00            1         52
  #>  6     5 Di     2017-04-23 00:00:00 1988-04-30 00:00:00            0         78
  #>  7     6 Di     2016-03-21 00:00:00 1989-03-28 00:00:00            0         62
  #>  8     7 Di     2016-02-17 00:00:00 1985-02-24 00:00:00            0         54
  #>  9     8 Di     2017-12-14 00:00:00 1988-12-21 00:00:00            1         72
  #> 10     9 Di     2017-04-23 00:00:00 1980-05-02 00:00:00            3         72
  #> # ℹ 24 more rows
  #> # ℹ 7 more variables: ALT <dbl>, Gesta <dbl>, Para <dbl>, Aborto <dbl>,
  #> #   `IGP semana` <dbl>, `IGP dia` <dbl>, oi <lgl>
```
…
---
class: middle

```r
library(dplyr)
dados1 <-  distinct(dados,id, .keep_all = TRUE)
dados1
  #> # A tibble: 30 × 12
  #>       id corion data_aval           data_nascimento     cor_branco peso_pre
  #>    <dbl> <chr>  <dttm>              <dttm>                   <dbl>    <dbl>
  #>  1     1 Di     2017-04-23 00:00:00 1988-04-30 00:00:00          1       93
  #>  2     2 Mono   2016-03-21 00:00:00 1982-03-30 00:00:00          1       59
  #>  3     3 Di     2016-02-17 00:00:00 1991-02-23 00:00:00          0       87
  #>  4     4 Di     2017-12-14 00:00:00 1983-12-23 00:00:00          1       52
  #>  5     5 Di     2017-04-23 00:00:00 1988-04-30 00:00:00          0       78
  #>  6     6 Di     2016-03-21 00:00:00 1989-03-28 00:00:00          0       62
  #>  7     7 Di     2016-02-17 00:00:00 1985-02-24 00:00:00          0       54
  #>  8     8 Di     2017-12-14 00:00:00 1988-12-21 00:00:00          1       72
  #>  9     9 Di     2017-04-23 00:00:00 1980-05-02 00:00:00          3       72
  #> 10    10 Di     2016-03-21 00:00:00 1984-03-29 00:00:00          1      102
  #> # ℹ 20 more rows
  #> # ℹ 6 more variables: alt <dbl>, gesta <dbl>, para <dbl>, aborto <dbl>,
  #> #   igp_semana <dbl>, igp_dia <dbl>
```
…
* left_join () - retorna todos os valores da primeira tabela mencionada, mais os da segunda tabela correspondente.

* semi_join () - filtra a primeira tabela mencionada para incluir apenas os valores que possuem correspondências na segunda tabela.

* anti_join () - filtra a primeira tabela mencionada para incluir apenas valores que não possuem correspondências na segunda tabela.

---
class: middle

```r
dados.todos <- inner_join(dados1, dados.ctg, by=c("id" = "ID"))

dados.todos
  #> # A tibble: 30 × 19
  #>       id corion data_aval  data_nascimento cor_branco peso_pre   alt gesta  para
  #>    <dbl> <chr>  <date>     <date>          <fct>         <dbl> <dbl> <dbl> <dbl>
  #>  1     1 di     2017-04-23 1988-04-30      branco           93  1.63     3     1
  #>  2     2 mono   2016-03-21 1982-03-30      branco           59  1.45     3     1
  #>  3     3 di     2016-02-17 1991-02-23      nbranco          87  1.69     2     1
  #>  4     4 di     2017-12-14 1983-12-23      branco           52  1.55     2     0
  #>  5     5 di     2017-04-23 1988-04-30      nbranco          78  1.59     7     2
  #>  6     6 di     2016-03-21 1989-03-28      nbranco          62  1.64     7     4
  #>  7     7 di     2016-02-17 1985-02-24      nbranco          54 NA        2     1
  #>  8     8 di     2017-12-14 1988-12-21      branco           72  1.64     2     1
  #>  9     9 di     2017-04-23 1980-05-02      branco           72  1.65     8     4
  #> 10    10 di     2016-03-21 1984-03-29      branco          102  1.68     3     2
  #> # ℹ 20 more rows
  #> # ℹ 10 more variables: aborto <dbl>, igp_semana <dbl>, igp_dia <dbl>,
  #> #   imc <dbl>, primigesta <fct>, idade <dbl>, Grupo <dbl>, IG_Aval <dbl>,
  #> #   MedidaColo <dbl>, Num_contra_CTG <dbl>
```
…
